{
    "name": "UP Luxtrust Testing procedure",
    "description": "This is sample pdf test.",
    "start": true,
    "files": [
        {
            "name": "sample doc.pdf",
            "content": "{{pdf_content}}",
            "signatureType": "pades",
            "reference": "{{uuid}}"
        },
        {
            "name": "another sample doc.pdf",
            "content": "{{pdf_content}}",
            "signatureType": "pades",
            "reference": "{{uuid-1}}"
        }
    ],
    "members": [
        {
            "email": "qa.sin.up@gmail.com",
            "firstname": "QA",
            "lastname": "Signing",
            "message": "Signature from member QA.Signing",
            "phone": "+32460260470",
            "signatureSettings": [
                {
                    "fileIndex": "0",
                    "page": "1",
                    "position": "50,200,130,45"
                },
                {
                    "fileIndex": "1",
                    "page": "1",
                    "position": "100,200,130,45"
                }
            ],
            "signatureMethod": "any",
            "type": "signer"
        }
    ],
    "config": {
        "email": {
            "procedure.started": [
                {
                    "to": [
                        "@members"
                    ],
                    "fromName": "UP Luxtrust Testing Service"
                }
            ],
            "procedure.finished": [
                {
                    "to": [
                        "@members"
                    ],
                    "fromName": "UP Luxtrust Testing Service"
                }
            ]
        },
        "webhook": {
            "procedure.started": [
                {
                    "url": "https://bf15f4acaa2cb0de7441401e6e0c20b5.m.pipedream.net",
                    "method": "POST"
                }
            ],
            "procedure.refused": [
                {
                    "url": "https://bf15f4acaa2cb0de7441401e6e0c20b5.m.pipedream.net",
                    "method": "POST"
                }
            ],
            "procedure.expired": [
                {
                    "url": "https://bf15f4acaa2cb0de7441401e6e0c20b5.m.pipedream.net",
                    "method": "POST"
                }
            ],
            "procedure.finished": [
                {
                    "url": "https://bf15f4acaa2cb0de7441401e6e0c20b5.m.pipedream.net",
                    "method": "POST"
                }
            ],
            "member.started": [
                {
                    "url": "https://bf15f4acaa2cb0de7441401e6e0c20b5.m.pipedream.net",
                    "method": "POST"
                }
            ],
            "member.finished": [
                {
                    "url": "https://bf15f4acaa2cb0de7441401e6e0c20b5.m.pipedream.net",
                    "method": "POST"
                }
            ],
            "comment.created": [
                {
                    "url": "https://bf15f4acaa2cb0de7441401e6e0c20b5.m.pipedream.net",
                    "method": "POST"
                }
            ]
        }
    }
}